%YAML 1.1
%TAG !u! tag:unity3d.com,2011:
--- !u!162 &1
EditorUserSettings:
  m_ObjectHideFlags: 0
  serializedVersion: 4
  m_ConfigSettings:
    RecentlyUsedScenePath-0:
      value: 22424703114646680e0b0227036c5215021f172e7866333e243d04
      flags: 0
    RecentlyUsedScenePath-1:
      value: 22424703114646680e0b0227036c5215021f172e7d66333e243d04
      flags: 0
    RecentlyUsedScenePath-2:
      value: 22424703114646642f0f1e29192d582f32181f657f0c66163f2c1873cfef302deee624a9cc332b730d07fc283b13002fbc1f0702e212
      flags: 0
    RecentlyUsedScenePath-3:
      value: 22424703114646642e1c0927003a6033170357157f0c66032e201b3aa2cb3d2ca2d422e8f52e3a2e7929e6284b1b193eff1a050ec95b5b450400f41a08
      flags: 0
    RecentlyUsedScenePath-4:
      value: 22424703114646680e0b0227036c5215021f172e7f686e14030d4f7aacf53a31f6fe
      flags: 0
    RecentlyUsedScenePath-5:
      value: 22424703114646680e0b0227036c72111f19563f22213229
      flags: 0
    RecentlyUsedScenePath-6:
      value: 22424703114646680e0b0227036c5211021f172e7f686e14030d547df7ee3d2cfb
      flags: 0
    RecentlyUsedScenePath-7:
      value: 22424703114646680e0b0227036c5215021f172e7d686e1606605326ece92021
      flags: 0
    RecentlyUsedScenePath-8:
      value: 22424703114646680e0b0227036c5215021f172e7e686e1d00605326ece92021
      flags: 0
    RecentlyUsedScenePath-9:
      value: 22424703114646680e0b0227036c5215021f172e78686e1305082f7aacf53a31f6fe
      flags: 0
    vcSharedLogLevel:
      value: 0d5e400f0650
      flags: 0
  m_VCAutomaticAdd: 1
  m_VCDebugCom: 0
  m_VCDebugCmd: 0
  m_VCDebugOut: 0
  m_SemanticMergeMode: 2
  m_VCShowFailedCheckout: 1
  m_VCOverwriteFailedCheckoutAssets: 1
  m_VCProjectOverlayIcons: 1
  m_VCHierarchyOverlayIcons: 1
  m_VCOtherOverlayIcons: 1
  m_VCAllowAsyncUpdate: 0
